<?xml version="1.0" encoding="utf-8"?>
<!-- Generator: Adobe Illustrator 24.1.0, SVG Export Plug-In . SVG Version: 6.00 Build 0)  -->
<svg version="1.1" id="Isolation_Mode" xmlns="http://www.w3.org/2000/svg" xmlns:xlink="http://www.w3.org/1999/xlink" x="0px"
	 y="0px" viewBox="0 0 46 43" style="enable-background:new 0 0 46 43;" xml:space="preserve">
<g>
	<path class="st0" d="M40.64,43c-0.7,0-1.47-0.34-1.98-0.89c-0.48,0.54-1.2,0.86-1.88,0.86c-1.22,0-2.21-1.01-2.21-2.25V27.61
		c-0.4,0.21-0.86,0.32-1.25,0.32c-1.05,0-1.91-0.87-1.91-1.94V15.03c0-0.33,0.08-0.65,0.24-0.94c0.53-1.5,1.88-2.52,3.44-2.62
		l1.82,0c-1.13-0.62-1.9-1.84-1.9-3.23c0-2.03,1.62-3.68,3.61-3.68c1.99,0,3.61,1.65,3.61,3.68c0,1.4-0.77,2.61-1.9,3.23l1.95,0
		c1.6,0.1,2.95,1.13,3.48,2.63c0.15,0.28,0.24,0.6,0.24,0.93v10.96c0,1.07-0.86,1.94-1.91,1.94c-0.52,0-0.93-0.06-1.25-0.16v12.99
		C42.84,41.99,41.85,43,40.64,43z M39.19,26.41v14.35c0,0.57,0.81,1.1,1.44,1.1c0.6,0,1.08-0.49,1.08-1.1V18.88l1.12,0l0,7.59
		c0,0.13,0.4,0.32,1.25,0.32c0.43,0,0.79-0.36,0.79-0.8V15.03c0-0.14-0.04-0.28-0.11-0.4l-0.05-0.11c-0.37-1.09-1.34-1.84-2.47-1.91
		l-7.12,0c-1.1,0.07-2.07,0.82-2.44,1.91l-0.05,0.11c-0.07,0.12-0.11,0.26-0.11,0.4v10.96c0,0.44,0.35,0.8,0.78,0.8
		c0.55,0,1.25-0.41,1.25-0.73v-7.18h1.12v21.85c0,0.61,0.49,1.1,1.08,1.1c0.65,0,1.3-0.55,1.3-1.1V26.41H39.19z M38.63,5.7
		c-1.37,0-2.49,1.14-2.49,2.53c0,1.39,1.12,2.53,2.49,2.53c1.37,0,2.49-1.13,2.49-2.53C41.11,6.84,40,5.7,38.63,5.7z"/>
	<path class="st0" d="M24.93,38.44c-0.7,0-1.47-0.34-1.98-0.89c-0.48,0.54-1.2,0.86-1.88,0.86c-1.22,0-2.21-1.01-2.21-2.25V23.05
		c-0.4,0.21-0.86,0.32-1.25,0.32c-1.05,0-1.91-0.87-1.91-1.94V10.47c0-0.33,0.08-0.65,0.24-0.94c0.53-1.5,1.88-2.52,3.45-2.62
		l1.82,0c-1.13-0.62-1.9-1.84-1.9-3.23c0-2.03,1.62-3.68,3.61-3.68c1.99,0,3.61,1.65,3.61,3.68c0,1.4-0.77,2.61-1.9,3.23l1.94,0
		c1.6,0.1,2.95,1.13,3.48,2.63c0.15,0.28,0.24,0.6,0.24,0.93v10.96c0,1.07-0.86,1.94-1.91,1.94c-0.52,0-0.93-0.06-1.25-0.16V36.2
		C27.14,37.43,26.15,38.44,24.93,38.44z M23.49,21.85V36.2c0,0.57,0.81,1.1,1.44,1.1c0.6,0,1.08-0.49,1.08-1.1V14.32h1.12v7.59
		c0,0.13,0.4,0.33,1.25,0.33c0.43,0,0.79-0.36,0.79-0.8V10.47c0-0.14-0.04-0.28-0.11-0.4l-0.05-0.11c-0.37-1.09-1.34-1.84-2.47-1.91
		l-7.12,0c-1.09,0.07-2.07,0.82-2.44,1.91l-0.05,0.11c-0.07,0.12-0.11,0.26-0.11,0.4v10.96c0,0.44,0.35,0.8,0.78,0.8
		c0.55,0,1.25-0.41,1.25-0.74v-7.18h1.12v21.85c0,0.61,0.49,1.1,1.09,1.1c0.65,0,1.3-0.55,1.3-1.1V21.85H23.49z M22.92,1.14
		c-1.37,0-2.49,1.14-2.49,2.53c0,1.39,1.12,2.53,2.49,2.53c1.37,0,2.49-1.13,2.49-2.53C25.41,2.28,24.29,1.14,22.92,1.14z"/>
	<path class="st0" d="M9.23,43c-0.7,0-1.47-0.34-1.98-0.89c-0.48,0.54-1.2,0.86-1.88,0.86c-1.22,0-2.21-1.01-2.21-2.25V27.61
		c-0.4,0.21-0.86,0.32-1.25,0.32C0.86,27.93,0,27.06,0,25.99V15.03c0-0.33,0.08-0.65,0.24-0.94c0.53-1.5,1.88-2.52,3.44-2.62l1.82,0
		c-1.13-0.62-1.9-1.84-1.9-3.23c0-2.03,1.62-3.68,3.61-3.68c1.99,0,3.61,1.65,3.61,3.68c0,1.4-0.77,2.61-1.9,3.23l1.95,0
		c1.6,0.1,2.95,1.13,3.48,2.63c0.15,0.28,0.24,0.6,0.24,0.93v10.96c0,1.07-0.86,1.94-1.91,1.94c-0.52,0-0.93-0.06-1.25-0.16v12.99
		C11.43,41.99,10.44,43,9.23,43z M7.78,26.41v14.35c0,0.57,0.81,1.1,1.44,1.1c0.6,0,1.08-0.49,1.08-1.1V18.88l1.12,0l0,7.59
		c0,0.13,0.4,0.32,1.25,0.32c0.43,0,0.79-0.36,0.79-0.8V15.03c0-0.14-0.04-0.28-0.1-0.4l-0.05-0.11c-0.37-1.09-1.34-1.84-2.47-1.91
		l-7.12,0c-1.1,0.07-2.07,0.82-2.44,1.91l-0.05,0.11c-0.07,0.12-0.11,0.26-0.11,0.4v10.96c0,0.44,0.35,0.8,0.78,0.8
		c0.55,0,1.25-0.41,1.25-0.73v-7.18h1.12v21.85c0,0.61,0.49,1.1,1.09,1.1c0.65,0,1.29-0.55,1.29-1.1V26.41H7.78z M7.21,5.7
		c-1.37,0-2.49,1.14-2.49,2.53c0,1.39,1.12,2.53,2.49,2.53c1.37,0,2.49-1.13,2.49-2.53C9.7,6.84,8.59,5.7,7.21,5.7z"/>
</g>
</svg>
