<?xml version="1.0" encoding="utf-8"?>
<!-- Generator: Adobe Illustrator 24.1.0, SVG Export Plug-In . SVG Version: 6.00 Build 0)  -->
<svg version="1.1" id="Isolation_Mode" xmlns="http://www.w3.org/2000/svg" xmlns:xlink="http://www.w3.org/1999/xlink" x="0px"
	 y="0px" viewBox="0 0 29 47" style="enable-background:new 0 0 29 47;" xml:space="preserve">
<g>
	<path class="st0" d="M14.5,43.26l-0.53-0.8C13.4,41.61,0,21.49,0,14.47C0,6.49,6.5,0,14.5,0c3.88,0,7.53,1.51,10.28,4.26
		C27.51,6.99,29,10.62,29,14.48c-0.01,7.01-13.4,27.13-13.97,27.98L14.5,43.26z M14.5,1.28C7.21,1.28,1.28,7.2,1.28,14.47
		c0,5.87,10.68,22.58,13.22,26.46c2.53-3.88,13.21-20.59,13.22-26.46c0-3.51-1.36-6.82-3.85-9.31C21.37,2.66,18.04,1.28,14.5,1.28z"
		/>
	<rect x="2.03" y="45.72" class="st0" width="24.95" height="1.28"/>
	<path class="st0" d="M14.5,19.78c-3.45,0-6.26-2.81-6.26-6.27c0-3.45,2.81-6.26,6.26-6.26c3.45,0,6.26,2.81,6.26,6.26
		C20.76,16.97,17.95,19.78,14.5,19.78z M14.5,8.53c-2.75,0-4.98,2.23-4.98,4.98c0,2.75,2.23,4.98,4.98,4.98
		c2.75,0,4.98-2.23,4.98-4.98C19.48,10.77,17.25,8.53,14.5,8.53z"/>
</g>
</svg>
